ahb2wb.vcd
$date
	Wed Nov 10 18:12:55 2021
$end

$version
	Synopsys VCS version Q-2020.03-SP2-2
$end

$timescale
	10ps
$end

$comment Csum: 1 aa9b745de4295daf $end


$scope module ahb2wb_tb $end

$scope module DUT $end
$var wire 32 ! dat_i [31:0] $end
$var wire 1 " ack_i $end
$var wire 1 # clk_i $end
$var wire 1 $ rst_i $end
$var wire 1 % hclk $end
$var wire 1 & hresetn $end
$var wire 32 ' hwdata [31:0] $end
$var wire 1 ( hwrite $end
$var wire 3 ) hburst [2:0] $end
$var wire 1 * hsize [2] $end
$var wire 1 + hsize [1] $end
$var wire 1 , hsize [0] $end
$var wire 2 - htrans [1:0] $end
$var wire 1 . hsel $end
$var wire 16 / haddr [15:0] $end
$var wire 16 0 adr_o [15:0] $end
$var reg 32 1 dat_o [31:0] $end
$var reg 1 2 cyc_o $end
$var wire 1 3 we_o $end
$var reg 1 4 stb_o $end
$var reg 32 5 hrdata [31:0] $end
$var reg 2 6 hresp [1:0] $end
$var reg 1 7 hready $end
$var reg 16 8 addr_temp [15:0] $end
$var reg 1 9 hwrite_temp $end
$upscope $end

$upscope $end

$enddefinitions $end

#0
$dumpvars
x2
x7
x9
x4
bxxxxxxxxxxxxxxxx 8
bxxxxxxxxxxxxxxxxxxxxxxxxxxxxxxxx 1
bxxxxxxxxxxxxxxxxxxxxxxxxxxxxxxxx 5
bxx 6
b00 -
bxxxxxxxxxxxxxxxxxxxxxxxxxxxxxxxx !
1&
x%
x(
x.
x"
bxxx )
bxxxxxxxxxxxxxxxxxxxxxxxxxxxxxxxx '
x3
x*
x+
x,
bxxxxxxxxxxxxxxxx /
bxxxxxxxxxxxxxxxx 0
z#
z$
$end
#300
0&
17
#500
0%
#1000
1%
b00 6
02
04
1"
#1100
0.
#1200
0"
#1500
0%
#2000
1%
1&
#2500
0%
#3000
1%
#3200
1.
0*
1+
0,
b000 )
#3500
0%
#4000
1%
#4200
b10 -
1(
b0000000000000001 /
b00000000000000000000000000000000 '
#4500
0%
#5000
1%
12
14
b0000000000000001 8
19
07
b00000000000000000000000000000000 1
1"
17
#5200
b0000000000000010 /
b00000000000000000000000000000001 '
b0000000000000001 0
13
b00000000000000000000000000000001 1
#5500
0%
#6000
1%
b0000000000000010 8
#6200
b0000000000000011 /
b00000000000000000000000000000010 '
b0000000000000010 0
b00000000000000000000000000000010 1
#6500
0%
#7000
1%
b0000000000000011 8
#7200
b0000000000000100 /
b00000000000000000000000000000011 '
b0000000000000011 0
b00000000000000000000000000000011 1
#7400
0"
07
#7500
0%
#8000
1%
#8500
0%
#9000
1%
#9500
0%
#10000
1%
#10500
0%
#11000
1%
#11200
1"
17
#11500
0%
#12000
1%
b0000000000000100 8
#12200
b0000000000000101 /
b00000000000000000000000000000100 '
b0000000000000100 0
b00000000000000000000000000000100 1
#12500
0%
#13000
1%
b0000000000000101 8
#13200
b0000000000000110 /
b00000000000000000000000000000101 '
b0000000000000101 0
b00000000000000000000000000000101 1
#13500
0%
#14000
1%
b0000000000000110 8
#14200
b0000000000000111 /
b00000000000000000000000000000110 '
b0000000000000110 0
b00000000000000000000000000000110 1
#14500
0%
#15000
1%
b0000000000000111 8
#15200
b0000000000001000 /
b00000000000000000000000000000111 '
b0000000000000111 0
b00000000000000000000000000000111 1
#15400
b01 -
#15500
0%
#16000
1%
04
#16200
0"
#16500
0%
#17000
1%
#17400
b10 -
#17500
0%
#18000
1%
14
b0000000000001000 8
07
1"
17
#18200
b0000000000001001 /
b00000000000000000000000000001000 '
b0000000000001000 0
b00000000000000000000000000001000 1
#18500
0%
#19000
1%
b0000000000001001 8
#19200
b0000000000001010 /
b00000000000000000000000000001001 '
b0000000000001001 0
b00000000000000000000000000001001 1
#19500
0%
#20000
1%
b0000000000001010 8
#20200
b0000000000001011 /
b00000000000000000000000000001010 '
b0000000000001010 0
b00000000000000000000000000001010 1
#20500
0%
#21000
1%
b0000000000001011 8
#21200
b0000000000001100 /
b00000000000000000000000000001011 '
b0000000000001011 0
b00000000000000000000000000001011 1
#21400
b01 -
#21500
0%
#22000
1%
04
#22200
0"
#22500
0%
#23000
1%
#23400
b10 -
#23500
0%
#24000
1%
14
b0000000000001100 8
07
1"
17
#24200
0(
b0000000000001100 0
#24500
0%
#25000
1%
09
#25200
b0000000000001011 /
03
b00000000000000000000000000001011 !
b00000000000000000000000000001011 5
#25500
0%
#26000
1%
b0000000000001011 8
#26200
b0000000000001010 /
b0000000000001011 0
#26500
0%
#27000
1%
b0000000000001010 8
#27200
b0000000000001001 /
b0000000000001010 0
b00000000000000000000000000001010 !
b00000000000000000000000000001010 5
#27500
0%
#28000
1%
b0000000000001001 8
#28200
b0000000000001000 /
b0000000000001001 0
b00000000000000000000000000001001 !
b00000000000000000000000000001001 5
#28500
0%
#29000
1%
b0000000000001000 8
#29200
b0000000000000111 /
b0000000000001000 0
b00000000000000000000000000001000 !
b00000000000000000000000000001000 5
#29400
b01 -
#29500
0%
#30000
1%
04
#30200
0"
#30500
0%
#31000
1%
#31400
b10 -
#31500
0%
#32000
1%
14
b0000000000000111 8
07
1"
17
#32200
b0000000000000110 /
b0000000000000111 0
b00000000000000000000000000000111 !
b00000000000000000000000000000111 5
#32500
0%
#33000
1%
b0000000000000110 8
#33200
b0000000000000101 /
b0000000000000110 0
b00000000000000000000000000000110 !
b00000000000000000000000000000110 5
#33500
0%
#34000
1%
b0000000000000101 8
#34200
b0000000000000100 /
b0000000000000101 0
b00000000000000000000000000000101 !
b00000000000000000000000000000101 5
#34400
0"
07
#34500
0%
#35000
1%
#35500
0%
#36000
1%
#36500
0%
#37000
1%
#37200
1"
17
#37500
0%
#38000
1%
b0000000000000100 8
#38200
1(
b00000000000000000000000000001100 '
b0000000000000100 0
b00000000000000000000000000000100 !
b00000000000000000000000000000100 5
#38500
0%
#39000
1%
19
b00000000000000000000000000001100 1
#39200
b0000000000000101 /
b00000000000000000000000000001101 '
13
b00000000000000000000000000001101 1
#39500
0%
#40000
1%
b0000000000000101 8
#40200
b0000000000000110 /
b00000000000000000000000000001110 '
b0000000000000101 0
b00000000000000000000000000001110 1
#40500
0%
#41000
1%
b0000000000000110 8
#41200
b0000000000000111 /
b00000000000000000000000000001111 '
b00 -
b0000000000000110 0
b00000000000000000000000000001111 1
#41500
0%
#42000
1%
04
02
#42200
0"
